{
  "t": "zoroaster -a",
  "test": "scripts t test/spec test/mask",
  "spec": "scripts t test/spec",
  "mask": "scripts t test/mask",
  "test-build": "scripts test -e test-build",
  "lint": "eslint .",
  "doc": "doc -o README.md -d",
  "b": "alamode src -o build -s",
  "d": "yarn-s d1",
  "d1": "doc src/index.js -g",
  "build": "yarn-s d b doc",
  "e": "alanode"
}